IWJ
CSL IWJ 0 1121
CSL IWJ 1 189
CSL IWJ 2 322
CSL IWJ 3 155
CSL IWJ 4 1372
CSL SFR 0 1366
CSL SFR 1 1181
CSL SFR 2 698
CSL SFR 3 1426
CSL SFR 4 291
CSL WXF 0 1349
CSL WXF 1 650
CSL WXF 2 1334
CSL WXF 3 1213
CSL WXF 4 788
CSL IHG 0 790
CSL IHG 1 936
CSL IHG 2 1235
CSL IHG 3 800
CSL IHG 4 1244
IWJ CSL 0 723
IWJ CSL 1 753
IWJ CSL 2 1305
IWJ CSL 3 531
IWJ CSL 4 465
IWJ SFR 0 27
IWJ SFR 1 1490
IWJ SFR 2 1151
IWJ SFR 3 635
IWJ SFR 4 1340
IWJ WXF 0 1278
IWJ WXF 1 19
IWJ WXF 2 1134
IWJ WXF 3 175
IWJ WXF 4 1246
IWJ IHG 0 946
IWJ IHG 1 368
IWJ IHG 2 814
IWJ IHG 3 957
IWJ IHG 4 177
SFR CSL 0 1419
SFR CSL 1 1382
SFR CSL 2 97
SFR CSL 3 772
SFR CSL 4 604
SFR IWJ 0 815
SFR IWJ 1 219
SFR IWJ 2 360
SFR IWJ 3 552
SFR IWJ 4 103
SFR WXF 0 422
SFR WXF 1 480
SFR WXF 2 255
SFR WXF 3 1499
SFR WXF 4 420
SFR IHG 0 468
SFR IHG 1 1164
SFR IHG 2 214
SFR IHG 3 91
SFR IHG 4 1497
WXF CSL 0 64
WXF CSL 1 1172
WXF CSL 2 61
WXF CSL 3 1010
WXF CSL 4 272
WXF IWJ 0 720
WXF IWJ 1 694
WXF IWJ 2 234
WXF IWJ 3 870
WXF IWJ 4 28
WXF SFR 0 1062
WXF SFR 1 1243
WXF SFR 2 1163
WXF SFR 3 1367
WXF SFR 4 1063
WXF IHG 0 1478
WXF IHG 1 1343
WXF IHG 2 940
WXF IHG 3 879
WXF IHG 4 329
IHG CSL 0 1149
IHG CSL 1 486
IHG CSL 2 152
IHG CSL 3 1403
IHG CSL 4 1089
IHG IWJ 0 427
IHG IWJ 1 1297
IHG IWJ 2 1456
IHG IWJ 3 1356
IHG IWJ 4 140
IHG SFR 0 1300
IHG SFR 1 332
IHG SFR 2 106
IHG SFR 3 331
IHG SFR 4 378
IHG WXF 0 707
IHG WXF 1 812
IHG WXF 2 923
IHG WXF 3 862
IHG WXF 4 217
